<svg id="icon-play-btn" xmlns="http://www.w3.org/2000/svg" width="70" height="70" viewBox="0 0 70 70">
  <path id="Path_700" data-name="Path 700" d="M35,3.5A31.5,31.5,0,1,1,3.5,35,31.535,31.535,0,0,1,35,3.5M35,0A35,35,0,1,0,70,35,35,35,0,0,0,35,0Z" fill="#fff"/>
  <path id="Path_701" data-name="Path 701" d="M171.322,120.892,152.81,108.708c-3.2-2.1-5.81-.692-5.81,3.133v25.641c0,3.824,2.618,5.24,5.819,3.145l18.5-12.1C174.514,126.427,174.518,122.994,171.322,120.892Zm-2.467,5.075-16.439,10.758c-1.066.7-1.939.227-1.939-1.048V113.644c0-1.275.872-1.744,1.937-1.043l16.445,10.822A1.411,1.411,0,0,1,168.855,125.967Z" transform="translate(-122.399 -89.664)" fill="#fff"/>
</svg>
