<svg xmlns="http://www.w3.org/2000/svg" width="18" height="18" viewBox="0 0 18 18">
  <g id="icon-search-clear" transform="translate(-1449 -15)">
    <circle id="Ellipse_65" data-name="Ellipse 65" cx="9" cy="9" r="9" transform="translate(1449 15)" fill="#e1e6eb"/>
    <g id="clear-button" transform="translate(1454.193 20.193)">
      <g id="clear">
        <path id="Path_694" data-name="Path 694" d="M7.807.781,7.026,0,3.9,3.123.781,0,0,.781,3.123,3.9,0,7.026l.781.781L3.9,4.684,7.026,7.807l.781-.781L4.684,3.9Z" fill="#283847"/>
      </g>
    </g>
  </g>
</svg>
