<svg xmlns="http://www.w3.org/2000/svg" width="110" height="110" viewBox="0 0 110 110">
  <g id="success" transform="translate(0 0)">
    <path id="Path_649" data-name="Path 649" d="M55,0a55,55,0,1,0,55,55A55.062,55.062,0,0,0,55,0Zm0,105.769A50.769,50.769,0,1,1,105.769,55,50.828,50.828,0,0,1,55,105.769Z" transform="translate(0)" fill="#fff"/>
    <path id="Path_650" data-name="Path 650" d="M67.626,15.71,35.06,52.214,15.441,36.576a2.114,2.114,0,1,0-2.647,3.3l21.189,16.89a2.126,2.126,0,0,0,2.909-.247l33.9-38a2.116,2.116,0,0,0-3.17-2.8Z" transform="translate(13.335 16.769)" fill="#fff"/>
  </g>
</svg>
