<svg xmlns="http://www.w3.org/2000/svg" width="13.241" height="1.848" viewBox="0 0 13.241 1.848">
  <g id="remove" transform="translate(0 -211.613)">
    <g id="Group_130" data-name="Group 130" transform="translate(0 211.613)">
      <path id="Path_831" data-name="Path 831" d="M12.523,211.613H.719a.953.953,0,0,0,0,1.848h11.8a.953.953,0,0,0,0-1.848Z" transform="translate(0 -211.613)" fill="#283847"/>
    </g>
  </g>
</svg>
