<svg xmlns="http://www.w3.org/2000/svg" width="57.037" height="50.345" viewBox="0 0 57.037 50.345">
  <g id="right-quote-sign" opacity="0.2">
    <path id="Path_803" data-name="Path 803" d="M559.125,57.2h17.783a2.926,2.926,0,0,1,2.925,2.925V77.9a2.926,2.926,0,0,1-2.925,2.925H568.4q.167,6.985,3.241,11.185a17.621,17.621,0,0,0,7.33,5.487,2.921,2.921,0,0,1,1.451,3.925l-2.106,4.446A2.925,2.925,0,0,1,574.5,107.3a32.517,32.517,0,0,1-9.81-6.364,24.694,24.694,0,0,1-6.686-10.641Q556.2,84.363,556.2,74.1V60.122A2.926,2.926,0,0,1,559.125,57.2Z" transform="translate(-556.2 -57.197)" fill="#737e88"/>
    <path id="Path_804" data-name="Path 804" d="M18.3,107.288a33.067,33.067,0,0,1-9.763-6.353,24.563,24.563,0,0,1-6.727-10.6Q0,84.448,0,74.1V60.122A2.926,2.926,0,0,1,2.924,57.2H20.707a2.926,2.926,0,0,1,2.925,2.925V77.9a2.926,2.926,0,0,1-2.925,2.925H12.2q.167,6.985,3.241,11.185a17.621,17.621,0,0,0,7.33,5.487,2.921,2.921,0,0,1,1.451,3.925l-2.1,4.434A2.933,2.933,0,0,1,18.3,107.288Z" transform="translate(32.537 -57.197)" fill="#737e88"/>
  </g>
</svg>
