<svg xmlns="http://www.w3.org/2000/svg" xmlns:xlink="http://www.w3.org/1999/xlink" width="117" height="79" viewBox="0 0 117 79">
  <defs>
    <clipPath id="clip-Gilan_MKT_Logo">
      <rect width="117" height="79"/>
    </clipPath>
  </defs>
  <g id="Gilan_MKT_Logo" data-name="Gilan MKT Logo" clip-path="url(#clip-Gilan_MKT_Logo)">
    <g id="Group_1597" data-name="Group 1597" transform="translate(21580 668)">
      <path id="Path_1044" data-name="Path 1044" d="M-154.374,324.373c-.3-.1-.4-.3-.8-.3-.8,2.9-4,7.7-6,10.1-.3.3-.5.6-.7.8-.4.4-.3.6-1,.6a62.884,62.884,0,0,1-6.3-.1,38.21,38.21,0,0,0,3.9-2.3,33.8,33.8,0,0,0,6.5-6c.5-.7,2.1-3.2,2.2-4.2l-1.6-1.4a14.243,14.243,0,0,1-3.6-5.6,13.294,13.294,0,0,1-.1-7.9,10.243,10.243,0,0,1,1-2.1l1.6,1.3a14.94,14.94,0,0,1,4.9,9.7,25.286,25.286,0,0,1,.1,2.8c-.1.9-.2,1.8-.3,2.6a12.751,12.751,0,0,0,1.2.7,10.019,10.019,0,0,0,1.3-1.5,19.792,19.792,0,0,1,4.8-3.7,31.1,31.1,0,0,1,18.3-4,25.328,25.328,0,0,1,4.8.8,32.231,32.231,0,0,1,4.1,1.5,12.277,12.277,0,0,1-2.2,3.5c-4.9,5.6-14.2,7.8-21.6,7.4a27.185,27.185,0,0,1-5.1-.8,18.665,18.665,0,0,1-2.2-.7,14.462,14.462,0,0,0-2.1-.8,7.737,7.737,0,0,0-.8,5.5,7.983,7.983,0,0,0,2.5,4.1c5.1,4.7,15.1,4.8,22,4.4a44.5,44.5,0,0,0,11.2-2.2c9.4-3.1,18.8-9.6,20.8-19.2a17.707,17.707,0,0,0,.2-6.1,18.031,18.031,0,0,0-1-4c-.1-.3-.4-.9-.5-1.2h1c.6.8,1.4,4.2,1.6,5.4.9,6-1.3,11.5-4.9,15.8-3.9,4.7-9.8,8.5-17.2,10.7a50.531,50.531,0,0,1-24.8,1.2c-3.9-.8-6.9-1.5-9.6-4.3-4.9-4.8-1.6-9.9-1.6-10.5Zm1.8-.9c.6.2,1.3.5,1.9.7a27.754,27.754,0,0,0,6.5,1.4,34.046,34.046,0,0,0,9.6-.5c4.4-1,11.4-3.7,12.6-8.3a19.95,19.95,0,0,0-3.9-1.2,29.689,29.689,0,0,0-13.9.1c-3.6,1-7.7,2.7-10.4,5.2-.5.4-2.2,1.9-2.4,2.6Zm-8-15.5a7.916,7.916,0,0,0-.4,4.1,13.48,13.48,0,0,0,2.6,6.8,13.2,13.2,0,0,0,2.3,2.4,14.366,14.366,0,0,0,.3-4.2,12.239,12.239,0,0,0-2.5-6.8A12.509,12.509,0,0,0-160.574,307.973Z" transform="translate(-21403.545 -931)" fill="#fff" fill-rule="evenodd"/>
      <g id="Group_1596" data-name="Group 1596" transform="translate(-21403.545 -931)">
        <path id="Path_1045" data-name="Path 1045" d="M-151.574,282.773a16.85,16.85,0,0,1,3.7-10.8c3.9-4.9,10.4-7.5,16.5-7.9,9.4-.7,18.8,3.6,21.8,13.1v.1h-.1v-.1a17.629,17.629,0,0,0-6.8-9.3c-12.4-8.6-35.2-2.2-34.9,15v.1h-.1a16.784,16.784,0,0,0-16.7,2.3,18.788,18.788,0,0,0-7,16.2c.7,7.8,6.4,12.9,13.4,15.5h.1l-.1.1h-.1c-7-2.7-12.8-7.8-13.5-15.7a18.86,18.86,0,0,1,7-16.3A17,17,0,0,1-151.574,282.773Z" fill="#fff" stroke="#fff" stroke-miterlimit="22.926" stroke-width="0.216" fill-rule="evenodd"/>
      </g>
      <path id="Path_1046" data-name="Path 1046" d="M-161.774,317.073c-25.8-9.8-10.5-42.3,10.3-34.2-.4-21.5,35.4-26.2,41.9-5.7" transform="translate(-21403.545 -931)" fill="none" stroke="#fff" stroke-miterlimit="22.926" stroke-width="0.216"/>
      <path id="Path_1047" data-name="Path 1047" d="M-132.274,284.873l-7.8,10h-1.2l-1.3-10.1-2.1,6.9a7.005,7.005,0,0,0-.3,1.4c0,.1,0,.1.1.2a5.854,5.854,0,0,0,1.3.2h.7l-.4,1.4h-6.7l.5-1.4h.7a2.768,2.768,0,0,0,1.3-.3c.3-.2.5-1,.6-1.3l3.4-10.7c-.1-.1-.3-.3-.4-.3a4.254,4.254,0,0,0-1.1-.2l-.6-.1.4-1.4h4.8l1.5,11.3,8.9-11.3h4.5v1.4h-.5c-.3,0-1.1.1-1.3.1a2.181,2.181,0,0,0-.5.4,4.923,4.923,0,0,0-.6,1.7h0l-3,9.4h0a3.553,3.553,0,0,0-.2,1c0,.1,0,.1.1.1a2.153,2.153,0,0,0,1.1.2h1l-.4,1.4h-7.7l.4-1.4h.7a2.153,2.153,0,0,0,1.1-.2h0a1,1,0,0,0,.4-.5c.1-.2.2-.5.3-.7.2-.4.3-.9.5-1.3l1.8-5.9Zm30.9-3.9-3.1,10.1h0a15.19,15.19,0,0,0-.6,2c0,.1.1.1.1.2a3.554,3.554,0,0,0,1,.2h1.3l-.5,1.4h-8l.5-1.4h.7a2.537,2.537,0,0,0,1.2-.2,1,1,0,0,0,.4-.5,14.579,14.579,0,0,0,.7-1.9l3.1-9.8h-.2a7.107,7.107,0,0,0-2.1.3,2.55,2.55,0,0,0-1.2.8,4.018,4.018,0,0,0-.8,1.6l-.1.4h-1.5l1.4-5h13.4l-1.6,5h-1.5l.2-.6a6.753,6.753,0,0,0,.2-1.4,1.136,1.136,0,0,0-.3-.8,4.679,4.679,0,0,0-1.7-.2h-1Zm-18.2,5.1,4.5-3.1c.5-.4,1.1-.8,1.6-1.2.2-.1.4-.3.6-.4a3.723,3.723,0,0,1,1.1-.5,6.108,6.108,0,0,1,1.3-.3l.3-.1.4-1.4h-6.2l-.4,1.4.6.1a.6.6,0,0,1,.4.1h0c0,.1-.1.1-.1.2a4.884,4.884,0,0,1-1.4,1.1l-4.4,3.1.7-2.3a11.5,11.5,0,0,1,.6-1.7,1,1,0,0,1,.5-.4,2.483,2.483,0,0,1,.9-.1h.4l.4-1.4h-7.1l-.5,1.4h1a2.768,2.768,0,0,1,.9.1c.1.1.1.1.1.3a7.972,7.972,0,0,1-.3,1.5l-2.8,8.9a5.094,5.094,0,0,1-.7,1.7,2.186,2.186,0,0,1-.5.3,3.4,3.4,0,0,1-1,.1h-.3l-.5,1.4h7.3l.7-1.4h-.8a5.9,5.9,0,0,1-1.4-.2.1.1,0,0,1-.1-.1,6.468,6.468,0,0,1,.4-1.3h0l1.3-4.1,2.7,3.8a3.328,3.328,0,0,1,.6,1,.6.6,0,0,1,.1.4.214.214,0,0,1-.2.2,1.344,1.344,0,0,1-.9.2h-.4l-.4,1.4h7.9l.5-1.4h-.7a4.529,4.529,0,0,1-1.6-.3c-.6-.3-1.2-1.3-1.6-1.8l-3.5-5.2Zm-21.2-6.5h-4l-.1.4a6.3,6.3,0,0,1,1.3.3,1.542,1.542,0,0,1,.7.7l-3.5,11c-.3.8-.5,1.3-.8,1.5a2.457,2.457,0,0,1-1.7.5h-.3l-.1.4h5.3l.1-.4c-.8-.1-1.3-.1-1.5-.3a.6.6,0,0,1-.3-.6,5.033,5.033,0,0,1,.4-1.6l2.8-9.1,1.6,12h.5l9.4-12-2.7,8.6a11.989,11.989,0,0,1-.8,2.2,2.336,2.336,0,0,1-.7.7,2.763,2.763,0,0,1-1.4.2h-.3l-.1.4h6.6l.1-.4h-.3a2.649,2.649,0,0,1-1.4-.3.6.6,0,0,1-.3-.6,2.607,2.607,0,0,1,.3-1.1l3-9.4a5.493,5.493,0,0,1,.7-1.8,1.874,1.874,0,0,1,.7-.6,8.807,8.807,0,0,1,1.5-.2v-.4h-3.7l-9.5,12-1.5-12.1Zm32.2,0-1.1,3.9h.4a4.353,4.353,0,0,1,.9-1.8,3.39,3.39,0,0,1,1.4-.9,7.549,7.549,0,0,1,2.3-.3h.9l-3.3,10.5a13.48,13.48,0,0,1-.8,2.1,4.351,4.351,0,0,1-.6.7,2.649,2.649,0,0,1-1.4.3h-.3l-.1.4h6.9l.1-.4h-.5a3.475,3.475,0,0,1-1.3-.2c-.2-.2-.4-.4-.4-.6a10.468,10.468,0,0,1,.6-2.2l3.2-10.4h1.3a3.768,3.768,0,0,1,2,.3,1.654,1.654,0,0,1,.5,1.2,8.875,8.875,0,0,1-.2,1.5h.4l1.3-3.9h-12.2Zm-11.7,6.4,4.9-3.4a26.937,26.937,0,0,1,2.3-1.6l1.2-.6a4.879,4.879,0,0,1,1.4-.3l.1-.4h-5.1l-.1.4a1.445,1.445,0,0,1,.7.2.519.519,0,0,1,.2.4c0,.2-.1.3-.2.5a5.369,5.369,0,0,1-1.5,1.2l-5.7,4,1.2-3.8a5.781,5.781,0,0,1,.7-1.8,4.348,4.348,0,0,1,.7-.6,2.676,2.676,0,0,1,1.1-.2l.1-.4h-6l-.1.4h.2a2.872,2.872,0,0,1,1.2.2.908.908,0,0,1,.3.7,5.5,5.5,0,0,1-.3,1.6l-2.8,8.9a9.633,9.633,0,0,1-.8,1.9,1.276,1.276,0,0,1-.7.5,7.076,7.076,0,0,1-1.2.2l-.2.4h6.2l.2-.4c-.9,0-1.4-.1-1.6-.3a.6.6,0,0,1-.3-.6,4.317,4.317,0,0,1,.4-1.4l1.6-5.1,3.3,4.7c.4.6.6.9.7,1.1a1.268,1.268,0,0,1,.1.6.713.713,0,0,1-.3.6,2.3,2.3,0,0,1-1.1.4l-.1.4h6.8l.1-.4a3.007,3.007,0,0,1-1.8-.4,8.351,8.351,0,0,1-1.8-1.9Z" transform="translate(-21403.545 -931)" fill="#fff" stroke="#fff" stroke-miterlimit="22.926" stroke-width="0.283" fill-rule="evenodd"/>
      <path id="Path_1048" data-name="Path 1048" d="M-147.274,303.473l-.1.2h-2.6l.1-.2c.3,0,.4,0,.5-.1s.2-.1.3-.2a2.192,2.192,0,0,0,.3-.8l1.1-3.9a2.252,2.252,0,0,0,.1-.7c0-.1,0-.2-.1-.2,0-.1-.1-.1-.2-.1h-.5l.1-.2h2.4l-.1.2c-.2,0-.4,0-.4.1l-.3.3a2.2,2.2,0,0,0-.3.8l-1.1,3.9a1.76,1.76,0,0,0-.1.6c0,.1,0,.1.1.2a.348.348,0,0,0,.2.1c.1-.1.3,0,.6,0Zm.9-7.9a.6.6,0,0,1,.4.1c.1.1.1.2.1.4,0,.1-.1.3-.1.4-.1.1-.2.1-.4.1a.6.6,0,0,1-.4-.1c-.1-.1-.1-.2-.1-.4a.6.6,0,0,1,.1-.4c.1,0,.2-.1.4-.1Zm3.5,3.8h-.2c-.1.1-.2.2-.3.2a.367.367,0,0,1-.3-.1.774.774,0,0,0-.3-.1h-.3a1.4,1.4,0,0,0-.9.3,1.135,1.135,0,0,0-.3.8.9.9,0,0,0,.1.5c.1.2.3.4.5.8a3.277,3.277,0,0,1,.6.8c0,.1.1.2.1.3a.764.764,0,0,1-.2.5.845.845,0,0,1-.6.2.779.779,0,0,1-.7-.3,1.327,1.327,0,0,1-.3-1h-.2l-.3,1.5h.2c.1-.1.2-.2.3-.2s.1,0,.2.1a3.091,3.091,0,0,0,.8.2,1.159,1.159,0,0,0,1-.4,1.086,1.086,0,0,0,.4-.9,1.421,1.421,0,0,0-.2-.6,4.82,4.82,0,0,0-.8-1c-.2-.2-.3-.3-.3-.4s-.1-.2-.1-.3a.52.52,0,0,1,.2-.4.764.764,0,0,1,.5-.2.866.866,0,0,1,.6.3,1.22,1.22,0,0,1,.3.9h.2l.3-1.5Zm2.8-1.2-.4,1.3h.7l-.1.3h-.7l-.9,2.8a3.931,3.931,0,0,0-.2.6v.1h.1c.1,0,.2-.1.3-.2a7.362,7.362,0,0,1,.5-.6l.2.1a3.632,3.632,0,0,1-.8.9c-.2.1-.3.2-.5.2a.367.367,0,0,1-.3-.1.367.367,0,0,1-.1-.3,4.5,4.5,0,0,1,.2-.8l.8-2.7h-.7v-.2a3.553,3.553,0,0,0,.9-.4,4.843,4.843,0,0,0,.8-1Zm1.2,3.7v.4a.908.908,0,0,0,.3.7.908.908,0,0,0,.7.3,1.7,1.7,0,0,0,.7-.1,6.784,6.784,0,0,0,.9-.6l.1.1a3.321,3.321,0,0,1-2.1,1.1,1.053,1.053,0,0,1-1-.4,1.689,1.689,0,0,1-.3-1,2.5,2.5,0,0,1,.4-1.4,2.892,2.892,0,0,1,1.1-1.1,2.3,2.3,0,0,1,1.4-.4,1.165,1.165,0,0,1,.7.2c.2.1.2.3.2.5a1.33,1.33,0,0,1-.3.8,3.6,3.6,0,0,1-1.2.8,4.569,4.569,0,0,0-1.6.1Zm0-.3a3.5,3.5,0,0,0,1.2-.3,3.491,3.491,0,0,0,.9-.6,1.08,1.08,0,0,0,.3-.7.367.367,0,0,0-.1-.3c-.1-.1-.2-.1-.4-.1a1.591,1.591,0,0,0-1,.5,3.765,3.765,0,0,0-.9,1.5Zm6-4.7-1.3,4.6a10.284,10.284,0,0,1,1.4-1.7,1.433,1.433,0,0,1,1-.4.523.523,0,0,1,.4.2.764.764,0,0,1,.2.5,1.7,1.7,0,0,1-.1.7l-.6,2a1,1,0,0,0-.1.4v.1h.1a.1.1,0,0,0,.1-.1c.2-.1.3-.3.5-.6l.1.1a1.756,1.756,0,0,1-.4.5,1.756,1.756,0,0,1-.5.4.367.367,0,0,1-.3.1.367.367,0,0,1-.3-.1.367.367,0,0,1-.1-.3c0-.1.1-.4.2-.8l.6-1.9a1.268,1.268,0,0,0,.1-.6c0-.1,0-.1-.1-.2a.349.349,0,0,0-.2-.1.367.367,0,0,0-.3.1,4.37,4.37,0,0,0-.8.7,7.356,7.356,0,0,0-.8,1.2,2.118,2.118,0,0,0-.3.7l-.3,1h-.7l1.6-5.4.2-.6c0-.1,0-.2-.1-.2a.31.31,0,0,0-.2-.1h-.4v-.2Zm5.5,2.5-.3,1.4h-.2a1.222,1.222,0,0,0-.3-.9.864.864,0,0,0-.6-.3c-.2,0-.3.1-.5.2a.519.519,0,0,0-.2.4.367.367,0,0,0,.1.3c0,.1.1.2.3.4a4.821,4.821,0,0,1,.8,1,1.421,1.421,0,0,1,.2.6,1.221,1.221,0,0,1-.4.9,1.284,1.284,0,0,1-1,.4,3.091,3.091,0,0,1-.8-.2.349.349,0,0,1-.2-.1c-.1,0-.2.1-.3.2h-.2l.3-1.5h.2a1.327,1.327,0,0,0,.3,1,.908.908,0,0,0,.7.3,1.422,1.422,0,0,0,.6-.2.764.764,0,0,0,.2-.5.367.367,0,0,0-.1-.3,7.976,7.976,0,0,0-.6-.8,1.458,1.458,0,0,1-.5-.8.9.9,0,0,1-.1-.5,1.136,1.136,0,0,1,.3-.8,1.222,1.222,0,0,1,.9-.3h.3a.774.774,0,0,1,.3.1.774.774,0,0,0,.3.1c.1,0,.2-.1.3-.2h.2Zm5,0-.9,3.2-.1.4v.2h.1a.1.1,0,0,0,.1-.1,1.628,1.628,0,0,0,.3-.6l.2.1a2.169,2.169,0,0,1-.6.7.646.646,0,0,1-.5.2.367.367,0,0,1-.3-.1.367.367,0,0,1-.1-.3,1.268,1.268,0,0,1,.1-.6l.1-.4a10.022,10.022,0,0,1-1.2,1.1,1.2,1.2,0,0,1-.8.2.908.908,0,0,1-.7-.3.984.984,0,0,1-.3-.8,3.675,3.675,0,0,1,.5-1.6,3.745,3.745,0,0,1,1.2-1.3,1.862,1.862,0,0,1,1.1-.4.749.749,0,0,1,.5.1,1.069,1.069,0,0,1,.3.5l.2-.5.8.3Zm-1.7.3a1.08,1.08,0,0,0-.7.3,3.779,3.779,0,0,0-.9,1.2,2.735,2.735,0,0,0-.4,1.4.764.764,0,0,0,.2.5.758.758,0,0,0,.4.2,1.877,1.877,0,0,0,1.3-.7,2.865,2.865,0,0,0,.8-2,.845.845,0,0,0-.2-.6c-.1-.3-.3-.3-.5-.3Zm4.7-2.8-1.7,5.6a1.75,1.75,0,0,0-.1.5v.1h.1c.1,0,.1,0,.2-.1a3.807,3.807,0,0,0,.5-.6l.1.1a3.631,3.631,0,0,1-.8.9c-.2.1-.3.2-.5.2a.367.367,0,0,1-.3-.1.367.367,0,0,1-.1-.3c0-.1.1-.3.2-.7l1.3-4.4a3.224,3.224,0,0,1,.2-.6c0-.1,0-.1-.1-.2-.1,0-.2-.1-.3-.1h-.3v-.2l1.6-.1Zm4.6,2.5-.7.1-.2.5a2.186,2.186,0,0,0-.3-.5.749.749,0,0,0-.5-.1,1.862,1.862,0,0,0-1.1.4,3.744,3.744,0,0,0-1.2,1.3,3.32,3.32,0,0,0-.5,1.6,1.135,1.135,0,0,0,.3.8.908.908,0,0,0,.7.3,2.353,2.353,0,0,0,.8-.2,4,4,0,0,0,1.2-1.1l-.1.4a1.486,1.486,0,0,0-.1.6.367.367,0,0,0,.1.3.367.367,0,0,0,.3.1c.2,0,.3-.1.5-.2a4.3,4.3,0,0,0,.6-.7l-.2-.1c-.1.3-.3.5-.3.6l-.1.1h-.1v-.2l.1-.4.8-3.6Zm-1.8.3c.2,0,.3.1.5.2a.845.845,0,0,1,.2.6,3.176,3.176,0,0,1-.8,2,1.877,1.877,0,0,1-1.3.7.52.52,0,0,1-.4-.2.764.764,0,0,1-.2-.5,2.735,2.735,0,0,1,.4-1.4,6.234,6.234,0,0,1,.9-1.2,2.545,2.545,0,0,1,.7-.2Zm4.4-1.5-.4,1.3h.7l-.1.3h-.7l-.9,2.8a3.931,3.931,0,0,0-.2.6v.1h.1c.1,0,.2-.1.3-.2a7.36,7.36,0,0,1,.5-.6l.2.1a3.632,3.632,0,0,1-.8.9c-.2.1-.3.2-.5.2a.367.367,0,0,1-.3-.1.367.367,0,0,1-.1-.3,4.5,4.5,0,0,1,.2-.8l.8-2.7h-.7v-.2a3.553,3.553,0,0,0,.9-.4,4.843,4.843,0,0,0,.8-1Zm5.6,1.8,1.6,2.4a2.974,2.974,0,0,0,.7.8,1.445,1.445,0,0,0,.7.2l-.1.2h-2.7v-.2a.764.764,0,0,0,.5-.2.367.367,0,0,0,.1-.3v-.3c0-.1-.1-.2-.3-.5l-1.3-2-.6,2.4a3.933,3.933,0,0,0-.2.6c0,.1,0,.2.1.2.1.1.3.1.7.1l-.1.2h-2.5l.1-.2a.75.75,0,0,0,.5-.1c.1-.1.2-.1.3-.2a2.192,2.192,0,0,0,.3-.8l1.1-3.9a1.952,1.952,0,0,0,.1-.7.368.368,0,0,0-.1-.3c-.1-.1-.2-.1-.5-.1h-.1l.1-.2h2.4v.2c-.2,0-.3,0-.4.1l-.3.3a2.2,2.2,0,0,0-.3.8l-.5,1.6,2.3-1.7a3.806,3.806,0,0,0,.6-.5.31.31,0,0,0,.1-.2c0-.1,0-.1-.1-.2s-.1-.1-.3-.1v-.2h2.1v.2c-.2,0-.4.1-.6.1a1.332,1.332,0,0,0-.5.3s-.4.3-.9.7l-2,1.5Zm7.8.9a1.5,1.5,0,0,0-.4-1.1,1.284,1.284,0,0,0-1-.4,2.421,2.421,0,0,0-1.3.4,3.838,3.838,0,0,0-1.1,1.1,2.5,2.5,0,0,0-.4,1.4,1.5,1.5,0,0,0,.4,1.1,1.366,1.366,0,0,0,1.1.4,2.2,2.2,0,0,0,1.3-.4,2.66,2.66,0,0,0,1-1.1,2.735,2.735,0,0,0,.4-1.4Zm-.8-.4a3.606,3.606,0,0,1-.6,2c-.4.7-.8,1-1.3,1a1.422,1.422,0,0,1-.6-.2.844.844,0,0,1-.2-.7,3.859,3.859,0,0,1,.6-2c.4-.7.8-1,1.3-1a1.421,1.421,0,0,1,.6.2.844.844,0,0,1,.2.7Zm3.3-1.1-.6,2.1a7.175,7.175,0,0,1,.7-1.1,2.166,2.166,0,0,1,.9-.8,1.69,1.69,0,0,1,.5-.2.52.52,0,0,1,.4.2.52.52,0,0,1,.2.4,1.268,1.268,0,0,1-.1.6l-.4,1.2a7.3,7.3,0,0,1,1.5-2,1.33,1.33,0,0,1,.8-.3.52.52,0,0,1,.4.2.749.749,0,0,1,.1.5,1.268,1.268,0,0,1-.1.6l-.6,1.8c-.1.4-.2.6-.2.7v.1h.1a.1.1,0,0,0,.1-.1c.2-.1.3-.3.5-.5l.2.1c-.1.1-.2.3-.4.5s-.4.4-.5.4a.6.6,0,0,1-.4.1.367.367,0,0,1-.3-.1.367.367,0,0,1-.1-.3,5.073,5.073,0,0,1,.2-.9l.5-1.5a3.932,3.932,0,0,0,.2-.6v-.2c0-.1,0-.1-.1-.2l-.1-.1a1.689,1.689,0,0,0-.5.2,5.861,5.861,0,0,0-1.3,1.7,15.86,15.86,0,0,0-.8,1.8h-.5l.9-2.9a1.76,1.76,0,0,0,.1-.6c0-.1,0-.1-.1-.2l-.1-.1a.367.367,0,0,0-.3.1,2.974,2.974,0,0,0-.7.8,7.459,7.459,0,0,0-.7,1.2,12.342,12.342,0,0,0-.6,1.7h-.7l.9-3.1.1-.4v-.1c0-.1,0-.1-.1-.2s-.1-.1-.2-.1a.494.494,0,0,0-.3.1v-.2l1.5-.3Zm7,0-.7,2.1a7.174,7.174,0,0,1,.7-1.1,2.166,2.166,0,0,1,.9-.8,1.689,1.689,0,0,1,.5-.2.52.52,0,0,1,.4.2.52.52,0,0,1,.2.4,1.268,1.268,0,0,1-.1.6l-.4,1.2a7.3,7.3,0,0,1,1.5-2,1.33,1.33,0,0,1,.8-.3.52.52,0,0,1,.4.2.749.749,0,0,1,.1.5,1.268,1.268,0,0,1-.1.6l-.6,1.8c-.1.4-.2.6-.2.7v.1h.1a.1.1,0,0,0,.1-.1c.2-.1.3-.3.5-.5l.2.1c-.1.1-.2.3-.4.5s-.4.4-.5.4a.6.6,0,0,1-.4.1.367.367,0,0,1-.3-.1.367.367,0,0,1-.1-.3,5.073,5.073,0,0,1,.2-.9l.5-1.5a3.932,3.932,0,0,0,.2-.6v-.2c0-.1,0-.1-.1-.2l-.1-.1a1.689,1.689,0,0,0-.5.2,5.861,5.861,0,0,0-1.3,1.7,15.86,15.86,0,0,0-.8,1.8h-.4l.9-2.9a1.76,1.76,0,0,0,.1-.6c0-.1,0-.1-.1-.2l-.1-.1a.367.367,0,0,0-.3.1,2.974,2.974,0,0,0-.7.8,7.459,7.459,0,0,0-.7,1.2,12.342,12.342,0,0,0-.6,1.7h-.7l.9-3.1.1-.4v-.1c0-.1,0-.1-.1-.2s-.1-.1-.2-.1a.494.494,0,0,0-.3.1v-.2l1.5-.3Zm5.9,2.5v.4a.908.908,0,0,0,.3.7.908.908,0,0,0,.7.3,1.7,1.7,0,0,0,.7-.1,6.784,6.784,0,0,0,.9-.6l.1.1a3.321,3.321,0,0,1-2.1,1.1,1.053,1.053,0,0,1-1-.4,1.689,1.689,0,0,1-.3-1,2.5,2.5,0,0,1,.4-1.4,2.892,2.892,0,0,1,1.1-1.1,2.3,2.3,0,0,1,1.4-.4,1.165,1.165,0,0,1,.7.2c.2.1.2.3.2.5a1.33,1.33,0,0,1-.3.8,3.6,3.6,0,0,1-1.2.8,4.671,4.671,0,0,0-1.6.1Zm.1-.3a3.5,3.5,0,0,0,1.2-.3,3.491,3.491,0,0,0,.9-.6,1.08,1.08,0,0,0,.3-.7.367.367,0,0,0-.1-.3c-.1-.1-.2-.1-.4-.1a1.591,1.591,0,0,0-1,.5,2.371,2.371,0,0,0-.9,1.5Zm3.6-2,1.6-.3-.7,2.3a14.546,14.546,0,0,1,1.5-2,1.546,1.546,0,0,1,.6-.3c.1,0,.2,0,.2.1a.368.368,0,0,1,.1.3,1.43,1.43,0,0,1-.2.6c-.1.1-.2.2-.3.2s-.1,0-.2-.1c-.1,0-.1-.1-.1-.2v-.1h-.3c-.1,0-.2.2-.4.4-.3.3-.5.7-.9,1.2a4.875,4.875,0,0,0-.3.7,3.224,3.224,0,0,1-.2.6l-.2.6h-.5l.8-2.9a4.1,4.1,0,0,0,.2-.7c0-.1,0-.1-.1-.1s-.1-.1-.2-.1h-.3l-.1-.2Zm6.8-.2h-.2c-.1.1-.2.2-.3.2a.367.367,0,0,1-.3-.1.774.774,0,0,0-.3-.1h-.3a1.4,1.4,0,0,0-.9.3,1.135,1.135,0,0,0-.3.8.9.9,0,0,0,.1.5c.1.2.3.4.5.8a3.277,3.277,0,0,1,.6.8.367.367,0,0,1,.1.3.764.764,0,0,1-.2.5.845.845,0,0,1-.6.2.779.779,0,0,1-.7-.3,1.327,1.327,0,0,1-.3-1h-.2l-.3,1.5h.2c.1-.1.2-.2.3-.2s.1,0,.2.1a3.091,3.091,0,0,0,.8.2,1.159,1.159,0,0,0,1-.4,1.086,1.086,0,0,0,.4-.9,1.421,1.421,0,0,0-.2-.6,4.821,4.821,0,0,0-.8-1c-.2-.2-.3-.3-.3-.4s-.1-.2-.1-.3a.52.52,0,0,1,.2-.4.764.764,0,0,1,.5-.2.866.866,0,0,1,.6.3,1.22,1.22,0,0,1,.3.9h.2l.3-1.5Zm2.4-1.9a.367.367,0,0,1,.3.1.367.367,0,0,1,.1.3.366.366,0,0,1-.1.3.365.365,0,0,1-.3.1.365.365,0,0,1-.3-.1.366.366,0,0,1-.1-.3.367.367,0,0,1,.1-.3.367.367,0,0,1,.3-.1Zm.2,1.9-1,3.3a1,1,0,0,0-.1.4v.1h.1a.31.31,0,0,0,.2-.1c.2-.1.3-.3.5-.6l.2.1a2.7,2.7,0,0,1-.7.8.735.735,0,0,1-.6.2.367.367,0,0,1-.3-.1.367.367,0,0,1-.1-.3,1.759,1.759,0,0,1,.1-.6l.7-2.1.2-.6c0-.1,0-.1-.1-.2a.349.349,0,0,0-.2-.1.756.756,0,0,0-.4.1v-.2l1.5-.1Zm1.9,0-1.4.3v.2h.4c.2,0,.4.1.4.2a1.44,1.44,0,0,1,.2.9l.3,3a4.371,4.371,0,0,1-.7.8,2.652,2.652,0,0,1-.6.5h-.2l-.1-.1a.1.1,0,0,0-.1-.1h-.2c-.1,0-.2.1-.3.1-.1.1-.2.2-.2.3a.367.367,0,0,0,.1.3.367.367,0,0,0,.3.1,1.421,1.421,0,0,0,.6-.2,7.363,7.363,0,0,0,1.1-1c.7-.8,1.3-1.5,1.8-2.2a12.646,12.646,0,0,0,1-1.5,1.613,1.613,0,0,0,.3-.9.749.749,0,0,0-.1-.5.52.52,0,0,0-.4-.2.367.367,0,0,0-.3.1.367.367,0,0,0-.1.3.367.367,0,0,0,.1.3l.2.2c.1,0,.1.1.2.1v.3a.914.914,0,0,1-.3.5,3.743,3.743,0,0,0-.6,1c-.4.5-.6.8-.8,1.1l-.2-2.3a5.527,5.527,0,0,0-.1-.9c-.2-.4-.2-.5-.3-.7Zm7.5,0-.9,3.2-.1.4v.2h.1a.1.1,0,0,0,.1-.1,1.628,1.628,0,0,0,.3-.6l.2.1a2.169,2.169,0,0,1-.6.7.646.646,0,0,1-.5.2.367.367,0,0,1-.3-.1.367.367,0,0,1-.1-.3,1.268,1.268,0,0,1,.1-.6l.1-.4a10.022,10.022,0,0,1-1.2,1.1,1.2,1.2,0,0,1-.8.2.908.908,0,0,1-.7-.3.984.984,0,0,1-.3-.8,3.675,3.675,0,0,1,.5-1.6,3.745,3.745,0,0,1,1.2-1.3,1.862,1.862,0,0,1,1.1-.4.749.749,0,0,1,.5.1,1.069,1.069,0,0,1,.3.5l.2-.5.8.3Zm-1.8.3a1.08,1.08,0,0,0-.7.3,3.779,3.779,0,0,0-.9,1.2,2.735,2.735,0,0,0-.4,1.4.764.764,0,0,0,.2.5.758.758,0,0,0,.4.2,1.877,1.877,0,0,0,1.3-.7,2.865,2.865,0,0,0,.8-2,.845.845,0,0,0-.2-.6C-62.274,299.673-62.474,299.673-62.674,299.673Z" transform="translate(-21403.545 -931)" fill="#fff" fill-rule="evenodd"/>
      <path id="Path_1049" data-name="Path 1049" d="M-146.574,305.973l.6,5.2,3.8-5.2h1.5v.2c-.3,0-.5,0-.6.1-.1,0-.2.1-.3.3a2.192,2.192,0,0,0-.3.8l-1.2,4.1a1.087,1.087,0,0,0-.1.5c0,.1,0,.2.1.2.1.1.3.1.6.1h.1v.2h-2.6v-.2h.1a.743.743,0,0,0,.5-.1c.1,0,.2-.1.3-.3a3.021,3.021,0,0,0,.3-.9l1.1-3.7-3.8,5.2h-.2l-.6-5.2-1.1,4a2.249,2.249,0,0,0-.1.7.367.367,0,0,0,.1.3c.1.1.3.1.6.1l-.1.2h-2.1l.1-.2h.1a1.435,1.435,0,0,0,.7-.2,1.535,1.535,0,0,0,.3-.7l1.4-4.8-.3-.3a.749.749,0,0,0-.5-.1v-.2h1.6Zm8.1,0h-1.6v.2a2.017,2.017,0,0,1,.5.1c.1.1.2.1.3.3l-1.4,4.8a2.389,2.389,0,0,1-.3.7,1.165,1.165,0,0,1-.7.2h-.1l-.1.2h2.1l.1-.2a3.5,3.5,0,0,1-.6-.1c-.1-.1-.1-.1-.1-.3a2.649,2.649,0,0,1,.1-.7l1.1-4,.6,5.2h.2l3.8-5.2-1.1,3.7a2.193,2.193,0,0,1-.3.9l-.3.3a.749.749,0,0,1-.5.1h-.1v.2h2.7v-.2h-.1a1.083,1.083,0,0,1-.6-.1c-.1-.1-.1-.1-.1-.2a1.087,1.087,0,0,1,.1-.5l1.2-4.1a2.192,2.192,0,0,1,.3-.8l.3-.3a3.536,3.536,0,0,1,.6-.1v-.2h-1.5l-3.8,5.2-.7-5.1Zm11.4-.2-.5,2.1h-.2v-.5a4.332,4.332,0,0,0-.1-.5c-.1-.1-.1-.3-.3-.4-.1-.1-.3-.2-.4-.3a1.268,1.268,0,0,0-.6-.1,2.463,2.463,0,0,0-1.5.5,3.855,3.855,0,0,0-1.3,1.7,3.921,3.921,0,0,0-.4,1.8,2.456,2.456,0,0,0,.5,1.5,1.816,1.816,0,0,0,1.4.6,2.674,2.674,0,0,0,1.2-.3,4.084,4.084,0,0,0,1-.9h.2a2.334,2.334,0,0,1-1.2,1.2,2.41,2.41,0,0,1-1.5.4,3.194,3.194,0,0,1-1.4-.3,1.962,1.962,0,0,1-.9-.9,2.768,2.768,0,0,1-.3-1.3,3.606,3.606,0,0,1,.6-2,4.629,4.629,0,0,1,1.5-1.6,3.859,3.859,0,0,1,2-.6,3.553,3.553,0,0,1,1,.2.756.756,0,0,0,.4.1h.2q.15,0,.3-.3h.3Z" transform="translate(-21403.545 -931)" fill="#fff" fill-rule="evenodd"/>
    </g>
  </g>
</svg>
