<svg xmlns="http://www.w3.org/2000/svg" width="59.928" height="35.533" viewBox="0 0 59.928 35.533">
  <g id="icon-count2" transform="translate(0 -104.211)">
    <g id="Group_18" data-name="Group 18" transform="translate(0 104.211)">
      <g id="Group_17" data-name="Group 17" transform="translate(0 0)">
        <path id="Path_706" data-name="Path 706" d="M59.577,138.164l-9.007-6.755a2.273,2.273,0,0,0-2.393-.216,2.324,2.324,0,0,0-.224.129l-6.79-5.092v-1.5H46.2a2.746,2.746,0,0,0,2.717-2.3l2.431-14.587h.195a.878.878,0,0,0,0-1.756H41.223a3.669,3.669,0,0,0-1.956.562,2.758,2.758,0,0,0-2.736-2.439H6.186a4.6,4.6,0,0,0-3.275,1.356L.257,108.221a.878.878,0,0,0,0,1.241l2.815,2.815a.878.878,0,0,0,1.241,0l2.558-2.558H18.766v2H11.2a1.818,1.818,0,0,0-1.816,1.816v9.443h-.06a1.818,1.818,0,0,0-1.816,1.816v6.6a4.63,4.63,0,1,0,7.3,4.6H30.638a6.506,6.506,0,0,0,12.26-1.4l4.016,2.008v.865a2.288,2.288,0,0,0,2.285,2.285H59.05a.878.878,0,0,0,.527-1.58Zm-11.9-18.941H43.1a.06.06,0,0,1-.06-.06V111.6h5.9Zm-8.387-9.443h0a1.939,1.939,0,0,1,1.937-1.937H49.57l-.333,2H42.162a.878.878,0,0,0-.878.878v8.444a1.818,1.818,0,0,0,1.816,1.816H47.38l-.194,1.163a1,1,0,0,1-.985.834H39.286ZM6.508,107.964a.877.877,0,0,0-.621.257l-2.194,2.194L2.12,108.842l2.033-2.033a2.856,2.856,0,0,1,2.033-.842h12.58v2Zm3.753,30.024a2.875,2.875,0,1,1,2.875-2.875A2.878,2.878,0,0,1,10.261,137.988ZM30.1,134.235H14.807a4.627,4.627,0,0,0-5.545-3.643v-5.8a.06.06,0,0,1,.06-.06h2.815a.878.878,0,0,0,0-1.756h-1v-9.443a.06.06,0,0,1,.06-.06h21.58a.878.878,0,1,0,0-1.756H20.521v-5.751H36.532a1,1,0,0,1,1,1v4.752h-1a.878.878,0,0,0,0,1.756h1v9.5H15.891a.878.878,0,0,0,0,1.756H39.407V127.4a6.507,6.507,0,0,0-9.306,6.834Zm6.431,3.753a4.752,4.752,0,1,1,4.752-4.752A4.757,4.757,0,0,1,36.532,137.988Zm10.381-4.752v1.394l-3.9-1.95a6.488,6.488,0,0,0-1.851-4.011v-.246l5.8,4.348A2.314,2.314,0,0,0,46.913,133.237Zm2.285,4.752a.53.53,0,0,1-.53-.53v-4.222a.516.516,0,0,1,.293-.474.553.553,0,0,1,.243-.058.51.51,0,0,1,.312.108l6.9,5.175Z" transform="translate(0 -104.211)" fill="#f5780d"/>
      </g>
    </g>
    <g id="Group_20" data-name="Group 20" transform="translate(33.778 130.733)">
      <g id="Group_19" data-name="Group 19" transform="translate(0 0)">
        <path id="Path_707" data-name="Path 707" d="M293.212,332.432a.878.878,0,0,0-.878.878,1,1,0,1,1-1.5-.866.878.878,0,1,0-.879-1.52,2.754,2.754,0,1,0,4.132,2.385A.878.878,0,0,0,293.212,332.432Z" transform="translate(-288.581 -330.806)" fill="#f5780d"/>
      </g>
    </g>
    <g id="Group_22" data-name="Group 22" transform="translate(9.387 134.235)">
      <g id="Group_21" data-name="Group 21">
        <path id="Path_708" data-name="Path 708" d="M81.084,360.727h-.009a.883.883,0,1,0,.009,0Z" transform="translate(-80.201 -360.727)" fill="#f5780d"/>
      </g>
    </g>
    <g id="Group_24" data-name="Group 24" transform="translate(15.013 130.482)">
      <g id="Group_23" data-name="Group 23">
        <path id="Path_709" data-name="Path 709" d="M140.4,328.662H129.137a.878.878,0,1,0,0,1.756H140.4a.878.878,0,1,0,0-1.756Z" transform="translate(-128.259 -328.662)" fill="#f5780d"/>
      </g>
    </g>
    <g id="Group_26" data-name="Group 26" transform="translate(13.136 119.223)">
      <g id="Group_25" data-name="Group 25">
        <path id="Path_710" data-name="Path 710" d="M118.733,232.469H113.1a.878.878,0,1,0,0,1.756h5.63a.878.878,0,1,0,0-1.756Z" transform="translate(-112.226 -232.469)" fill="#f5780d"/>
      </g>
    </g>
    <g id="Group_28" data-name="Group 28" transform="translate(13.136 115.47)">
      <g id="Group_27" data-name="Group 27">
        <path id="Path_711" data-name="Path 711" d="M118.733,200.4H113.1a.878.878,0,0,0,0,1.756h5.63a.878.878,0,1,0,0-1.756Z" transform="translate(-112.226 -200.405)" fill="#f5780d"/>
      </g>
    </g>
  </g>
</svg>
