<svg xmlns="http://www.w3.org/2000/svg" width="31.238" height="39.297" viewBox="0 0 31.238 39.297">
  <g id="icon-iplik" transform="translate(0)">
    <path id="XMLID_755_" d="M53.077,51.978a.576.576,0,0,0,.575-.55,8.461,8.461,0,0,1,1.794-4.859.576.576,0,1,0-.907-.709A9.607,9.607,0,0,0,52.5,51.376a.576.576,0,0,0,.549.6Z" transform="translate(-52.501 -42.135)" fill="#f5780d"/>
    <path id="XMLID_756_" d="M103.343,2.717a8.531,8.531,0,0,1,10.031.129c-.141.125-.278.254-.411.387a9.572,9.572,0,0,0-2.368,3.872.576.576,0,0,0,1.1.353,8.431,8.431,0,0,1,2.086-3.411,8.638,8.638,0,0,1,.851-.746l0,0a8.53,8.53,0,0,1,11.955,11.955l0,0a8.643,8.643,0,0,1-.747.852,8.432,8.432,0,0,1-3.41,2.086.576.576,0,0,0,.352,1.1,9.574,9.574,0,0,0,3.872-2.368c.133-.133.262-.272.388-.412a8.454,8.454,0,0,1,1.651,4.25.576.576,0,0,0,.572.518.567.567,0,0,0,.058,0,.576.576,0,0,0,.516-.63,9.6,9.6,0,0,0-2.062-5.067A9.682,9.682,0,0,0,114.307,2.111a9.684,9.684,0,0,0-11.63-.333.576.576,0,1,0,.666.939Z" transform="translate(-98.602 0)" fill="#f5780d"/>
    <path id="XMLID_757_" d="M86.378,159.2a.575.575,0,0,0-.675.456,8.53,8.53,0,0,1-14.4,4.4q-.289-.289-.549-.6a8.144,8.144,0,0,0,3.511-1.7,1.354,1.354,0,0,0,0-2.055,8.484,8.484,0,0,0-4.541-1.878,8.5,8.5,0,0,0,1.911-4.576,1.354,1.354,0,0,0-1.453-1.453,8.5,8.5,0,0,0-4.575,1.911,8.482,8.482,0,0,0-1.879-4.541,1.354,1.354,0,0,0-2.055,0,8.146,8.146,0,0,0-1.7,3.51c-.209-.173-.412-.356-.6-.548a8.516,8.516,0,0,1-2.237-3.935.576.576,0,1,0-1.116.282,9.667,9.667,0,0,0,2.539,4.467,9.773,9.773,0,0,0,1.214,1.03c-.026.293-.041.589-.041.888a9.241,9.241,0,0,0,1.3,4.8,7.422,7.422,0,0,0-1.869,4.936v10.541a.576.576,0,0,0,1.151,0V164.6a6.273,6.273,0,0,1,1.419-3.984c.1.116.207.228.316.334.149.146.3.294.441.441l.044.043a5.15,5.15,0,0,0-1.08,3.165v10.541a.576.576,0,0,0,1.151,0V164.6a4,4,0,0,1,.813-2.427,9.1,9.1,0,0,0,5.159,1.532c.3,0,.594-.014.887-.041a9.78,9.78,0,0,0,1.03,1.214,9.681,9.681,0,0,0,16.348-5A.575.575,0,0,0,86.378,159.2ZM63.3,160.581c-.15-.153-.3-.307-.458-.458a7.456,7.456,0,0,1-1.969-5.265,7.646,7.646,0,0,1,1.666-4.943.2.2,0,0,1,.31,0,7.644,7.644,0,0,1,1.666,4.943c0,.011,0,.022,0,.032s0,.034,0,.051a.576.576,0,0,0,.988.406l.029-.03.057-.059a7.646,7.646,0,0,1,4.673-2.317.2.2,0,0,1,.219.219,7.643,7.643,0,0,1-2.317,4.674l-.062.06-.027.026a.576.576,0,0,0,.4.988h.089a7.643,7.643,0,0,1,4.942,1.666.2.2,0,0,1,0,.309h0a7.641,7.641,0,0,1-4.942,1.666A7.458,7.458,0,0,1,63.3,160.581Z" transform="translate(-55.727 -136.415)" fill="#f5780d"/>
    <path id="XMLID_760_" d="M327.4,319.7h.011a.576.576,0,0,0,0-1.151H327.4a.576.576,0,0,0,0,1.151Z" transform="translate(-305.772 -294.1)" fill="#f5780d"/>
    <path id="XMLID_761_" d="M355.606,324.5a.576.576,0,1,0-.005,1.151h.011a.576.576,0,0,0,0-1.151Z" transform="translate(-331.808 -299.594)" fill="#f5780d"/>
    <path id="XMLID_762_" d="M316.549,42.418h-.011a.576.576,0,0,0,0,1.151h.011a.576.576,0,0,0,0-1.151Z" transform="translate(-295.741 -39.162)" fill="#f5780d"/>
    <path id="XMLID_763_" d="M199.5,167.815h-.008a.576.576,0,1,0,0,1.151h.008a.576.576,0,0,0,0-1.151Z" transform="translate(-187.675 -154.935)" fill="#f5780d"/>
  </g>
</svg>
