<svg xmlns="http://www.w3.org/2000/svg" width="68" height="3" viewBox="0 0 68 3">
  <g id="title_bg" transform="translate(-375 -2115)">
    <rect id="Rectangle_2186" data-name="Rectangle 2186" width="55" height="3" rx="1.5" transform="translate(375 2115)" fill="#f5780d"/>
    <rect id="Rectangle_2187" data-name="Rectangle 2187" width="3" height="3" rx="1.5" transform="translate(440 2115)" fill="#f5780d"/>
  </g>
</svg>
